experiment_2018_01_29_05_24_13_0001 experiment_2018_01_29_05_24_27_0001 experiment_2018_01_29_05_24_41_0001 experiment_2018_01_29_05_24_54_0001 experiment_2018_01_29_05_25_06_0001:
	untrained dropout networks

experiment_2018_01_30_01_48_09_0001 experiment_2018_01_30_01_48_21_0001 experiment_2018_01_30_01_48_36_0001 experiment_2018_01_30_01_49_04_0001 experiment_2018_01_30_02_03_51_0001:
	untrained DCNNs

experiment_2018_07_27_02_44_42_0001:
	untrained VD (relu activation)

experiment_2018_07_27_00_38_38_0001 experiment_2018_10_24_02_33_09_0001 experiment_2018_10_24_02_43_38_0001 experiment_2018_10_24_02_43_48_0001 experiment_2018_10_24_02_44_01_0001:
	untrained DCNN (relu activation)

experiment_2018_07_27_02_42_14_0001:
	pre-trained relu DCNN reaching

experiment_2018_02_01_01_21_42_0001 experiment_2018_02_01_01_23_09_0001 experiment_2018_02_01_01_28_44_0001 experiment_2018_02_01_01_31_59_0001:
	pre-trained (reaching) dropout networks 8000 samples w. noise 0.5
	STD sigmoid * -5 0.6765333333333334

experiment_2018_02_04_03_44_23_0001 (experiment_2018_02_21_01_28_14_0001) experiment_2018_02_04_03_46_18_0001 (experiment_2018_02_21_01_30_46_0001) experiment_2018_02_04_03_48_33_0001 (experiment_2018_02_21_01_31_56_0001) experiment_2018_02_04_03_50_00_0001 (experiment_2018_02_21_01_32_27_0001):
	pre-trained (reaching) DCNNs 8000 samples w. noise 0.5
	STD sigmoid * -5

experiment_2018_02_06_06_22_22_0001 experiment_2018_02_11_02_58_29_0001 experiment_2018_02_11_02_58_39_0001 experiment_2018_02_11_23_26_19_0001 experiment_2018_07_19_05_35_55_0001 experiment_2018_07_22_03_23_49_0001 experiment_2018_07_22_03_24_52_0001:
	untrained VD 256 resolution

experiment_2018_02_21_02_31_30_0001 experiment_2018_02_21_02_38_17_0001 experiment_2018_02_21_02_37_17_0001 experiment_2018_02_21_02_36_55_0001 experiment_2018_07_19_05_46_13_0001 experiment_2018_07_22_03_36_06_0001 experiment_2018_07_22_03_38_09_0001:
	untrained DCNN 256 resolution

experiment_2018_02_21_01_18_42_0001 (experiment_2018_07_04_00_35_38_0001)
experiment_2018_02_14_02_33_14_0001 (experiment_2018_02_15_23_43_46_0001 experiment_2018_02_21_01_13_56_0001 experiment_2018_07_09_02_18_09_0001)
experiment_2018_02_22_00_03_15_0001 (experiment_2018_07_04_00_51_27_0001)
experiment_2018_02_22_00_07_23_0001 (experiment_2018_07_04_00_53_33_0001)
experiment_2018_07_17_01_32_41_0001 (experiment_2018_07_23_03_34_27_0001)
experiment_2018_07_20_06_20_43_0001
experiment_2018_07_23_03_31_03_0001 
experiment_2018_07_23_03_31_58_0001:
	pre-trained VD grasping 256 resolution 0.6931666666666666

experiment_2018_07_10_04_26_19_0001:
	pre-trained VDL2 grasping regularising all layers from experiment_2018_02_21_02_36_55_0001

experiment_2018_07_10_04_19_55_0001:
	pre-trained VDL2 grasping regularising conv layers from experiment_2018_02_21_02_36_55_0001

<placeholder>
experiment_2018_02_22_01_29_14_0001 (experiment_2018_07_09_02_18_09_0001)
experiment_2018_07_10_00_56_10_0001
experiment_2018_07_17_01_30_30_0001 (experiment_2018_07_23_03_35_40_0001)
experiment_2018_07_20_03_02_46_0001
experiment_2018_07_23_05_35_30_0001
experiment_2018_07_23_03_33_06_0001 (experiment_2018_07_24_01_15_39_0001):
	pre-trained DCNN grasping 256 resolution

experiment_2017_08_14_04_03_44_0001:
	untrained reaching

experiment_2018_02_22_05_22_23_0001:
	untrained grasping

experiment_2018_02_22_05_54_07_0001:
	pre-trained DCNN 2000 samples reaching

experiment_2018_02_22_23_26_07_0001:
	pre-trained DCNN 4000 samples reaching

experiment_2018_02_23_06_50_32_0001:
	pre-trained VD 2000 samples reaching 0.3588

experiment_2018_02_23_07_08_50_0001:
	pre-trained VD 4000 samples reaching 0.5259333333333333

experiment_2018_02_23_01_38_09_0001:
	pre-trained DCNN 8000 samples noise 0.05

experiment_2018_02_23_07_55_34_0001:
	pre-trained VD 8000  samples noise 0.05 0.7662333333333334

experiment_2018_02_23_08_00_09_0001:
	pre-trained VD 8000 samples noise 0.25 0.6846333333333333

experiment_2018_02_23_04_59_44_0001:
	pre-trained DCNN 8000 samples noise 0.25

experiment_2018_03_07_02_19_00_0001:
	VD train mean then train STD to minimise NLL

experiment_2018_03_07_03_01_58_0001:
	as experiment_2018_03_07_02_19_00_0001 but with more iterations for STD

experiment_2018_04_10_02_30_36_0001 (experiment_2018_04_17_01_54_01_0001 experiment_2018_04_20_01_00_01_0001) experiment_2018_04_10_05_34_52_0001 experiment_2018_04_11_00_30_19_0001 experiment_2018_04_11_00_34_03_0001:
	VD train mean then VD train SD but without initial states

experiment_2018_04_11_06_28_12_0001 experiment_2018_04_17_02_01_27_0001 (experiment_2018_04_24_05_07_41_0001) experiment_2018_04_17_02_02_51_0001 experiment_2018_04_17_02_04_19_0001 (experiment_2018_04_24_07_29_32_0001):
	VD trained mean noise with activation sigmoid * -7.84


experiment_2018_05_04_03_14_30_0001 experiment_2018_05_09_00_55_10_0001 experiment_2018_05_09_03_01_20_0001 experiment_2018_05_09_03_02_38_0001:
	simultaneously but separately train policy mean and SD to minimize NLL, then join the learned weights

experiment_2018_05_04_03_41_14_0001 experiment_2018_05_09_02_40_27_0001 experiment_2018_05_09_03_22_55_0001 experiment_2018_05_09_03_23_59_0001:
	as above but scale the SD output nonlinearity so mean SD is ~e^-2.5

experiment_2018_05_08_01_23_45_0001:
	as experiment_2018_05_04_03_14_30_0001 but for grasping

experiment_2018_05_08_01_23_19_0001:
	pre-trained reaching VD but scale the SD output nonlinearity so mean SD is the same as in experiment_2018_05_04_03_14_30_0001

experiment_2018_07_02_01_05_51_0001:
	pre-trained reaching BLR

experiment_2018_07_11_01_57_10_0001:
	pre-trained 256 grasping of VD network without VD regularizer (pretending to be DCNN)

experiment_2018_07_17_06_29_03_0001 experiment_2018_07_19_02_13_24_0001:
	pre-trained DCNN grasping resolution 128

experiment_2018_07_17_03_28_13_0001 experiment_2018_07_19_04_15_24_0001:
	pre-trained VD grasping resolution 128

experiment_2018_09_04_03_53_08_0001:
	pre-trained RFF reaching

experiment_2018_09_04_04_10_32_0001:
	pre-trained RFF reaching, optimising the post-BLR-update loss and updating every iteration

experiment_2018_09_04_05_18_25_0001:
	pre-trained RFF reaching, optimising the post-BLR-update loss and updating every 50 iterations

trained_toy_rffblrp2:
	RFFBLRP trained on NLL w.r.t. NN params and NLML w.r.t. lengthscales, alternating every batch.

VisitationGaussianPolicy:
	Policy with an added BLR that keeps track of the regions of the state space that have been explored.

experiment_2018_10_22_04_34_59_0001 experiment_2018_10_25_04_10_50_0001 experiment_2018_10_25_05_17_59_0001 experiment_2018_10_26_02_37_56_0001 experiment_2018_10_26_02_39_01_0001 (experiment_2019_06_10_03_36_38_0001 experiment_2019_06_10_03_52_38_0001 experiment_2019_06_10_03_53_09_0001 experiment_2019_06_10_03_53_46_0001 experiment_2019_06_07_04_06_51_0001)

	reaching with pre-trained policy and visitation BLR. 100 time steps per episode.


experiment_2019_06_06_05_30_06_0001 experiment_2019_06_06_06_06_23_0001 experiment_2019_06_06_06_06_36_0001 experiment_2019_06_06_06_06_45_0001 experiment_2019_06_06_06_10_05_0001

	reaching with pre-trained policy and RND. 100 time steps per episode


experiment_2018_10_23_01_07_14_0001 experiment_2018_10_24_04_38_46_0001 experiment_2018_10_24_04_39_44_0001 experiment_2018_10_24_04_41_07_0001 experiment_2018_10_24_04_42_46_0001 

	reaching with pre-trained policy *without* visitation BLR. 100 time steps per episode.


experiment_2018_10_29_02_55_49_0001 experiment_2018_11_15_01_20_02_0001 experiment_2018_11_15_01_20_26_0001 experiment_2018_11_15_01_20_50_0001 experiment_2018_11_15_01_21_06_0001 experiment_2018_11_22_05_17_19_0001:
	untrained grasping networks for visitation BLRs.

experiment_2018_10_29_05_40_26_0001 (experiment_2019_01_10_06_51_53_0001) experiment_2018_11_16_07_17_47_0001 (experiment_2019_01_10_23_22_42_0001) experiment_2018_11_16_07_53_54_0001 (experiment_2019_01_10_23_24_44_0001) experiment_2018_11_26_00_12_44_0001 (experiment_2019_01_11_04_43_28_0001) experiment_2018_11_26_00_13_20_0001 (experiment_2019_01_11_04_44_20_0001)
(experiment_2019_06_20_02_54_28_0001 experiment_2019_06_20_02_53_13_0001 experiment_2019_06_20_02_53_31_0001 experiment_2019_06_20_02_54_44_0001 experiment_2019_06_20_02_55_04_0001)
	grasping with pre-trained policy and visitation BLR. 100 time steps p. episode.
	init noise e^-2.5


experiment_2019_06_14_05_30_10_0001 experiment_2019_06_14_03_09_53_0001 (experiment_2019_06_19_00_43_22_0001) experiment_2019_06_14_03_36_13_0001 (experiment_2019_06_19_00_43_54_0001) experiment_2019_06_17_03_40_12_0001 experiment_2019_06_17_03_40_30_0001
	grasping with RND


experiment_2018_10_29_05_40_02_0001 (experiment_2019_01_11_07_56_01_0001) experiment_2018_11_16_02_12_31_0001 (experiment_2019_01_12_03_15_44_0001) experiment_2018_11_16_02_12_49_0001 (experiment_2019_01_12_03_28_19_0001) experiment_2018_11_22_23_24_09_0001 (experiment_2019_01_13_00_45_18_0001) experiment_2018_11_23_03_37_21_0001 (experiment_2019_01_13_00_46_51_0001):
	grasping with pre-trained policy *without* visitation BLR. 100 time steps p. episode.
	init noise e^-2.5


experiment_2019_01_05_04_17_18_0001 experiment_2019_01_05_04_45_49_0001 experiment_2019_01_05_23_43_18_0001 experiment_2019_01_06_01_48_29_0001 experiment_2019_01_06_03_57_05_0001:
	grasping with visitation but without RFFs. 100 time steps p. episode.

experiment_2018_10_30_01_16_27_0001:
 	grasping with pre-trained policy and visitation BLR. 100 time steps p. episode.
	init noise e^-3

experiment_2018_10_30_01_09_36_0001:
 	grasping with pre-trained policy *without* visitation BLR. 100 time steps p. episode.
	init noise e^-3

experiment_2018_10_30_01_21_57_0001:
 	grasping with pre-trained policy and visitation BLR. 200 time steps p. episode.
	init noise e^-3

experiment_2018_11_02_06_25_14_0001:
	grasping with pre-trained policy and pre-trained visitation BLR. 200 time steps p. episode

experiment_2018_10_30_01_22_18_0001:
 	grasping with pre-trained policy *without* visitation BLR. 200 time steps p. episode.
	init noise e^-3

experiment_2018_11_11_23_53_46_0001:
	grasping with pre-trained policy and pre-trained visitation BLR w. lengthscale = 0.5
	100 time steps p. episode.

experiment_2018_11_11_23_57_25_0001:
	grasping with pre-trained policy and pre-trained visitation BLR w. lengthscale = 0.25
	100 time steps p. episode.

experiment_2018_11_12_00_04_52_0001:
	grasping with pre-trained policy and pre-trained visitation BLR w. lengthscale = 0.125
	100 time steps p. episode.

experiment_2018_11_12_00_06_27_0001:
	grasping with pre-trained policy and pre-trained visitation BLR w. lengthscale = 0.0625
	100 time steps p. episode.

experiment_2018_11_12_00_08_06_0001:
	grasping with pre-trained policy and pre-trained visitation BLR w. lengthscale = 0.5
	200 time steps p. episode.

experiment_2018_11_12_00_08_48_0001:
	grasping with pre-trained policy and pre-trained visitation BLR w. lengthscale = 0.25
	200 time steps p. episode.

experiment_2018_11_12_23_23_47_0001:
	grasping with pre-trained policy and pre-trained visitation BLR w. lengthscale = 0.125
	200 time steps p. episode.

experiment_2018_11_12_23_23_21_0001:
	grasping with pre-trained policy and pre-trained visitation BLR w. lengthscale = 0.0625
	200 time steps p. episode.

experiment_2018_11_14_23_53_46_0001:
	more difficult grasping problem with pre-trained policy and visitation BLR

experiment_2018_11_14_23_57_13_0001:
	more difficult grasping problem, initialized with a model trained on the easier grasping problem

experiment_2018_12_10_01_50_09_0001 experiment_2018_12_10_02_01_27_0001 experiment_2018_12_10_02_02_02_0001 experiment_2018_12_10_02_02_19_0001 experiment_2018_12_10_02_03_24_0001:
	untrained car racing policy 

experiment_2018_12_12_00_05_40_0001 experiment_2018_12_26_01_09_01_0001 experiment_2018_12_26_01_09_28_0001 experiment_2018_12_28_04_20_08_0001 experiment_2018_12_28_06_12_19_0001:
	pre-trained car racing policy *WITHOUT* visitation

experiment_2018_12_16_00_51_58_0001 experiment_2019_01_02_03_25_02_0001 experiment_2019_01_03_01_57_23_0001 experiment_2019_01_03_01_57_47_0001 experiment_2019_01_03_01_58_01_0001:
	pre-trained car racing with visitation

experiment_2018_12_29_05_55_32_0001 experiment_2019_01_07_04_30_53_0001:
	car racing trained from scratch with only curiosity rewards and minuscule noise

experiment_2019_01_07_00_03_27_0001:
	grasping with visitation with lengthscale 1e-2

experiment_2019_01_08_00_25_42_0001:
	grasping with visitation rewards without log

experiment_2019_01_11_06_39_44_0001

experiment_2019_01_11_06_56_01_0001

experiment_2019_01_12_01_23_44_0001 experiment_2019_01_12_03_37_56_0001 experiment_2019_01_13_01_43_24_0001:
	Cartpole TRPO with visitation

experiment_2019_01_12_01_27_43_0001 experiment_2019_01_12_04_00_16_0001 experiment_2019_01_12_04_00_30_0001:
	Cartpole TRPO *WITHOUT* visitation

experiment_2019_01_10_06_46_24_0001 experiment_2019_01_14_00_28_29_0001:
	reaching with visitation and 2000 RFFs

experiment_2019_01_13_03_16_40_0001 experiment_2019_01_14_00_29_11_0001:

	reaching with visitation and *no RFFs*

experiment_2019_01_13_06_14_38_0001 experiment_2019_01_13_23_52_38_0001 experiment_2019_01_13_23_52_53_0001:

	cartpole swingup TRPO w. visitation

experiment_2019_01_13_06_10_42_0001 experiment_2019_01_13_23_53_58_0001 experiment_2019_01_13_23_54_44_0001:

	as above but w/o visitation

experiment_2019_01_14_03_30_57_0001 experiment_2019_01_14_04_32_11_0001 experiment_2019_01_14_04_32_26_0001:

	Cartpole swingup REINFORCE w. visitation

experiment_2019_01_14_03_29_30_0001 experiment_2019_01_14_04_30_42_0001 experiment_2019_01_14_04_31_46_0001:

	as above but w/o visitation

experiment_2019_01_15_04_59_09_0001 experiment_2019_01_15_07_57_56_0001 experiment_2019_01_14_06_10_37_0001:

	cartpole swingup DDPG w. visitation

experiment_2019_01_15_04_58_48_0001 experiment_2019_01_16_00_05_00_0001 experiment_2019_01_16_00_22_58_0001 experiment_2019_01_17_00_50_02_0001 experiment_2019_01_17_00_50_23_0001 experiment_2019_01_17_00_50_39_0001:

	as above but w/o visitation


experiment_2019_01_16_03_20_45_0001:

	reaching 2000 RFFs with eta = 1/log(beta)

experiment_2019_01_16_03_24_27_0001:

	as above w/o RFFs

experiment_2019_01_17_01_06_34_0001:

	reaching 2000 RFFs with sparse rewards

experiment_2019_01_17_00_59_20_0001:

	as above w/o RFFs

experiment_2019_01_22_08_08_33_0001 experiment_2019_01_22_08_09_04_0001 experiment_2019_01_22_08_09_25_0001:

	Display grasping with curiosity after 0, 4k and 11k epochs respectively



experiment_2019_01_22_08_13_25_0001 experiment_2019_01_22_08_13_47_0001 experiment_2019_01_22_08_14_11_0001:

	As above but w/o curiosity rewards

experiment_2019_01_29_02_13_29_0001 experiment_2019_01_29_02_55_59_0001 experiment_2019_01_29_02_56_23_0001 experiment_2019_01_29_02_56_54_0001 experiment_2019_01_29_02_57_16_0001:

	Acrobot with curiosity reward and sigma = 0.3

experiment_2019_01_29_02_13_41_0001 experiment_2019_01_29_03_00_49_0001 experiment_2019_01_29_03_01_12_0001 experiment_2019_01_29_03_01_37_0001 experiment_2019_01_29_03_01_59_0001:

	As above but w/o curiosity rewards

experiment_2019_02_19_05_26_15_0001 experiment_2019_02_19_05_26_26_0001 experiment_2019_02_19_05_26_43_0001 experiment_2019_02_19_05_26_51_0001 experiment_2019_02_19_05_27_49_0001 experiment_2019_02_19_05_28_00_0001 experiment_2019_02_19_05_28_16_0001 experiment_2019_02_19_05_28_26_0001 experiment_2019_02_19_05_28_36_0001 experiment_2019_02_19_05_28_46_0001

	Acrobot with curiosity & success threshold y = 1.9 & sigma = 0.3


experiment_2019_02_19_04_44_37_0001 experiment_2019_02_19_04_44_49_0001 experiment_2019_02_19_04_44_58_0001 experiment_2019_02_19_04_45_08_0001 experiment_2019_02_19_04_45_19_0001 experiment_2019_02_19_04_45_30_0001 experiment_2019_02_19_04_45_41_0001 experiment_2019_02_19_04_45_51_0001 experiment_2019_02_19_04_46_01_0001 experiment_2019_02_19_04_46_11_0001

	As above but w/o curiosity rewards


trpo-expl_2019_05_28_00_39_43_0001 trpo-expl_2019_05_28_00_40_09_0001 trpo-expl_2019_05_28_00_40_15_0001 trpo-expl_2019_05_28_00_40_22_0001 trpo-expl_2019_05_28_00_40_28_0001 trpo-expl_2019_05_28_00_40_36_0001 trpo-expl_2019_05_28_00_40_42_0001 trpo-expl_2019_05_28_00_40_49_0001 trpo-expl_2019_05_28_00_40_55_0001 trpo-expl_2019_05_28_01_12_53_0001

	as above with VIME


experiment_2020_02_17_04_17_20_0001 experiment_2020_02_17_04_17_28_0001 experiment_2020_02_17_04_17_35_0001 experiment_2020_02_17_04_18_06_0001 experiment_2020_02_17_04_18_16_0001 experiment_2020_02_17_04_18_22_0001 experiment_2020_02_17_04_18_29_0001 experiment_2020_02_17_04_18_36_0001 experiment_2020_02_17_04_18_43_0001 experiment_2020_02_17_04_18_49_0001

	as above with RND


experiment_2019_01_31_03_55_38_0001 experiment_2019_01_31_04_25_02_0001 experiment_2019_01_31_04_25_38_0001 experiment_2019_01_31_04_25_54_0001 experiment_2019_01_31_04_26_09_0001 experiment_2019_01_31_05_16_31_0001 experiment_2019_01_31_05_16_42_0001 experiment_2019_01_31_05_16_56_0001 experiment_2019_01_31_05_17_17_0001 experiment_2019_01_31_05_17_29_0001 experiment_2019_01_31_05_17_42_0001:

	Continuous mountaincar with curiosity rewards, no RFF, sigma=0.3


experiment_2019_01_30_05_55_17_0001 experiment_2019_01_31_04_23_14_0001 experiment_2019_01_31_04_23_46_0001 experiment_2019_01_31_04_24_09_0001 experiment_2019_01_31_04_24_28_0001 experiment_2019_01_31_05_27_20_0001 experiment_2019_01_31_05_27_35_0001 experiment_2019_01_31_05_27_45_0001 experiment_2019_01_31_05_27_56_0001 experiment_2019_01_31_05_28_07_0001 experiment_2019_01_31_05_28_19_0001:

	as above but w/o curiosity rewards


experiment_2019_02_01_06_25_33_0001 experiment_2019_02_01_06_30_07_0001 experiment_2019_02_01_06_30_21_0001 experiment_2019_02_01_06_30_38_0001 experiment_2019_02_01_06_30_56_0001 experiment_2019_02_01_06_31_11_0001 experiment_2019_02_01_06_35_31_0001 experiment_2019_02_01_06_35_41_0001 experiment_2019_02_01_06_35_51_0001 experiment_2019_02_01_06_36_02_0001 experiment_2019_02_01_06_36_13_0001 experiment_2019_02_17_05_33_02_0001 experiment_2019_02_17_05_37_35_0001 experiment_2019_02_17_05_39_44_0001 experiment_2019_02_17_05_40_55_0001 experiment_2019_02_17_05_42_13_0001 experiment_2019_02_17_05_43_32_0001 experiment_2019_02_17_05_44_43_0001 experiment_2019_02_17_05_45_43_0001 experiment_2019_02_17_05_46_59_0001 experiment_2019_02_17_05_48_18_0001:

	Curiosity mountaincar with normalised observations (740993)


experiment_2019_02_01_06_38_04_0001 experiment_2019_02_01_06_38_14_0001 experiment_2019_02_01_06_38_23_0001 experiment_2019_02_01_06_38_36_0001 experiment_2019_02_01_06_38_46_0001 experiment_2019_02_01_06_42_23_0001 experiment_2019_02_01_06_42_35_0001 experiment_2019_02_01_06_43_25_0001 experiment_2019_02_01_06_43_36_0001 experiment_2019_02_01_06_43_46_0001 experiment_2019_02_17_05_49_42_0001 experiment_2019_02_17_05_50_57_0001 experiment_2019_02_17_05_51_50_0001 experiment_2019_02_17_05_52_46_0001 experiment_2019_02_17_05_53_45_0001 experiment_2019_02_17_05_54_40_0001 experiment_2019_02_17_05_56_38_0001 experiment_2019_02_17_05_57_45_0001 experiment_2019_02_17_05_58_49_0001 experiment_2019_02_17_06_00_32_0001 :

	as above w/o curiosity


trpo-expl_2019_05_27_07_42_41_0001 trpo-expl_2019_05_27_07_43_02_0001 trpo-expl_2019_05_27_07_43_09_0001 trpo-expl_2019_05_27_07_43_16_0001 trpo-expl_2019_05_27_07_43_23_0001 trpo-expl_2019_05_27_07_43_34_0001 trpo-expl_2019_05_27_07_43_42_0001 trpo-expl_2019_05_27_07_43_49_0001 trpo-expl_2019_05_27_07_43_49_0001 trpo-expl_2019_05_27_07_43_56_0001

	as above with VIME


experiment_2020_02_13_05_22_48_0001 experiment_2020_02_13_05_27_16_0001 experiment_2020_02_13_05_29_44_0001 experiment_2020_02_14_02_05_30_0001 experiment_2020_02_14_02_08_40_0001 experiment_2020_02_14_02_17_00_0001 experiment_2020_02_14_02_19_27_0001 experiment_2020_02_14_02_20_21_0001 experiment_2020_02_14_02_21_10_0001 experiment_2020_02_14_02_22_04_0001

	as above with RND


experiment_2019_02_04_01_21_30_0001 experiment_2019_02_04_01_22_29_0001 experiment_2019_02_04_01_22_43_0001 experiment_2019_02_04_01_23_40_0001 experiment_2019_02_04_01_23_50_0001 experiment_2019_02_04_02_00_14_0001 experiment_2019_02_04_02_00_23_0001 experiment_2019_02_04_02_00_34_0001 experiment_2019_02_04_02_00_45_0001 experiment_2019_02_04_02_00_55_0001:

	Curiosity acrobot with noralised observations


experiment_2019_02_04_01_04_49_0001 experiment_2019_02_04_01_05_06_0001 experiment_2019_02_04_01_05_18_0001 experiment_2019_02_04_01_05_30_0001 experiment_2019_02_04_01_05_43_0001 experiment_2019_02_04_02_25_47_0001 experiment_2019_02_04_02_26_06_0001 experiment_2019_02_04_02_26_16_0001 experiment_2019_02_04_02_26_28_0001 experiment_2019_02_04_02_26_42_0001:

	as above w/o curiosity


experiment_2019_02_05_07_02_52_0001 experiment_2019_02_05_23_27_00_0001 experiment_2019_02_05_23_27_21_0001 experiment_2019_02_05_23_27_38_0001 experiment_2019_02_05_23_27_54_0001 experiment_2019_02_05_23_27_54_0001 experiment_2019_02_18_01_05_11_0001 experiment_2019_02_18_01_05_25_0001 experiment_2019_02_18_01_05_37_0001 experiment_2019_02_18_01_05_53_0001:

	Curiosity swingup TRPO with -1 rewards


experiment_2019_02_05_07_02_41_0001 experiment_2019_02_06_00_50_34_0001 experiment_2019_02_06_00_50_45_0001 experiment_2019_02_06_00_50_54_0001 experiment_2019_02_06_00_50_54_0001 experiment_2019_02_06_00_51_14_0001 experiment_2019_02_18_02_35_36_0001 experiment_2019_02_18_02_35_47_0001 experiment_2019_02_18_02_35_57_0001 experiment_2019_02_18_02_36_09_0001

	As above but w/o curiosity


trpo-expl_2019_05_28_02_08_18_0001 trpo-expl_2019_05_28_02_08_36_0001 trpo-expl_2019_05_28_02_09_52_0001 trpo-expl_2019_05_28_02_10_04_0001 trpo-expl_2019_05_28_02_10_14_0001 trpo-expl_2019_05_28_02_10_33_0001 trpo-expl_2019_05_28_02_10_46_0001 trpo-expl_2019_05_28_02_10_58_0001 trpo-expl_2019_05_28_02_11_08_0001 trpo-expl_2019_05_28_02_11_22_0001

	as above but with VIME


experiment_2020_02_18_00_52_14_0001 experiment_2020_02_18_00_59_43_0001 experiment_2020_02_18_00_59_51_0001 experiment_2020_02_18_00_59_58_0001 experiment_2020_02_18_01_00_05_0001 experiment_2020_02_18_01_00_11_0001 experiment_2020_02_18_01_00_20_0001 experiment_2020_02_18_01_00_27_0001 experiment_2020_02_18_01_00_34_0001 experiment_2020_02_18_01_00_41_0001

	as above but with RND


experiment_2019_02_06_05_00_00_0001 experiment_2019_02_06_05_27_42_0001 experiment_2019_02_06_05_28_00_0001 experiment_2019_02_06_05_28_22_0001 experiment_2019_02_06_05_44_07_0001 experiment_2019_02_06_05_44_32_0001:

	Curiosity pendulum with mass=1.75


experiment_2019_02_06_04_59_02_0001 experiment_2019_02_06_06_37_42_0001 experiment_2019_02_06_06_37_54_0001 experiment_2019_02_06_06_38_03_0001 experiment_2019_02_06_06_38_16_0001 experiment_2019_02_06_06_38_27_0001:

	as above w/o curiosity


experiment_2019_02_07_01_42_16_0001 experiment_2019_02_07_01_51_51_0001 experiment_2019_02_07_01_52_03_0001 experiment_2019_02_07_01_52_16_0001 experiment_2019_02_07_01_52_27_0001 experiment_2019_02_18_07_28_56_0001 experiment_2019_02_18_07_29_12_0001 experiment_2019_02_18_07_29_26_0001 experiment_2019_02_18_07_29_40_0001 experiment_2019_02_18_07_29_56_0001:

	Curiosity pendulum w. m=1.75 and positive rewards for cos > 0.9


experiment_2019_02_07_01_42_36_0001 experiment_2019_02_07_03_02_15_0001 experiment_2019_02_07_03_02_27_0001 experiment_2019_02_07_03_02_38_0001 experiment_2019_02_07_03_02_48_0001 experiment_2019_02_18_05_53_04_0001 experiment_2019_02_18_05_53_23_0001 experiment_2019_02_18_05_53_35_0001 experiment_2019_02_18_05_53_48_0001:

	as above w/o curiosity


trpo-expl_2019_05_27_08_11_43_0001 trpo-expl_2019_05_27_08_14_27_0001 trpo-expl_2019_05_27_08_12_26_0001 trpo-expl_2019_05_27_08_13_01_0001 trpo-expl_2019_05_27_08_13_12_0001 trpo-expl_2019_05_27_08_13_26_0001 trpo-expl_2019_05_27_08_13_36_0001 trpo-expl_2019_05_27_08_13_46_0001 trpo-expl_2019_05_27_08_13_58_0001 trpo-expl_2019_05_27_08_14_09_0001

	as above with VIME


experiment_2020_02_14_06_00_24_0001 experiment_2020_02_14_06_04_48_0001 experiment_2020_02_14_06_05_00_0001 experiment_2020_02_14_06_05_16_0001 experiment_2020_02_14_06_05_16_0001 experiment_2020_02_14_06_05_44_0001 experiment_2020_02_14_06_06_26_0001 experiment_2020_02_14_06_06_46_0001 experiment_2020_02_14_06_07_03_0001 experiment_2020_02_14_06_07_15_0001

	as above with RND


experiment_2019_02_07_02_36_00_0001:

	Curiosity mountaincar with REINFORCE

experiment_2019_02_07_02_35_21_0001:

	as above w/o curiosity


experiment_2019_02_07_04_17_20_0001 experiment_2019_02_07_04_17_31_0001 experiment_2019_02_07_04_17_45_0001 experiment_2019_02_07_04_17_55_0001 experiment_2019_02_07_04_18_13_0001:

	Halted pendulum w. curiosity


experiment_2019_02_07_05_08_49_0001 experiment_2019_02_07_05_08_59_0001 experiment_2019_02_07_05_09_10_0001 experiment_2019_02_07_05_09_21_0001 experiment_2019_02_07_05_09_35_0001:

	as above w/o curiosity


experiment_2019_02_11_02_43_31_0001 experiment_2019_02_11_04_59_09_0001 experiment_2019_02_11_04_59_29_0001 experiment_2019_02_11_04_59_51_0001 experiment_2019_02_11_05_00_20_0001 experiment_2019_02_11_05_01_10_0001 experiment_2019_02_11_05_02_19_0001 experiment_2019_02_11_05_02_45_0001 experiment_2019_02_11_05_56_25_0001 experiment_2019_02_11_05_56_46_0001:

	DDPG acrobot with curiosity


experiment_2019_02_11_02_45_23_0001 experiment_2019_02_12_23_22_54_0001 experiment_2019_02_12_23_23_34_0001 experiment_2019_02_12_23_23_46_0001 experiment_2019_02_12_23_23_57_0001 experiment_2019_02_12_23_24_14_0001 experiment_2019_02_12_23_25_04_0001 experiment_2019_02_12_23_25_17_0001 experiment_2019_02_12_23_25_29_0001 experiment_2019_02_12_23_25_39_0001:

	as above w/o curiosity


experiment_2019_02_14_01_33_08_0001 experiment_2019_02_14_01_33_20_0001 experiment_2019_02_14_01_33_33_0001 experiment_2019_02_14_01_33_42_0001 experiment_2019_02_14_01_33_53_0001 experiment_2019_02_14_01_34_04_0001 experiment_2019_02_14_01_34_14_0001 experiment_2019_02_14_01_34_25_0001 experiment_2019_02_14_01_34_35_0001:

	DDPG mountaincar with curiosity and tanh activation


experiment_2019_02_14_01_15_49_0001 experiment_2019_02_14_01_16_06_0001 experiment_2019_02_14_01_16_19_0001 experiment_2019_02_14_01_16_34_0001 experiment_2019_02_14_01_18_04_0001 experiment_2019_02_14_01_18_15_0001 experiment_2019_02_14_01_18_26_0001 experiment_2019_02_14_01_18_45_0001 experiment_2019_02_14_00_52_58_0001:

	as above w/o curiosity


experiment_2019_02_14_04_30_02_0001 experiment_2019_02_14_04_30_17_0001 experiment_2019_02_14_04_30_29_0001 experiment_2019_02_14_04_30_42_0001 experiment_2019_02_14_04_30_55_0001 experiment_2019_02_14_04_31_06_0001 experiment_2019_02_14_04_31_17_0001 experiment_2019_02_14_04_31_27_0001 experiment_2019_02_14_04_31_39_0001 experiment_2019_02_14_04_31_49_0001:

	DDPG cartpole swingup with curiosity and tanh activation


experiment_2019_02_14_23_35_20_0001 experiment_2019_02_14_23_35_30_0001 experiment_2019_02_14_23_35_39_0001 experiment_2019_02_14_23_35_52_0001 experiment_2019_02_14_23_36_08_0001 experiment_2019_02_14_23_36_29_0001 experiment_2019_02_14_23_37_35_0001 experiment_2019_02_14_23_37_47_0001 experiment_2019_02_14_23_38_01_0001 experiment_2019_02_14_23_39_54_0001:

	as above w/o curiosity


experiment_2019_02_17_00_18_08_0001 experiment_2019_02_17_00_18_20_0001 experiment_2019_02_17_00_18_44_0001 experiment_2019_02_17_00_18_55_0001 experiment_2019_02_17_00_19_13_0001 experiment_2019_02_17_00_19_24_0001 experiment_2019_02_17_00_19_33_0001 experiment_2019_02_17_00_19_43_0001 experiment_2019_02_17_00_19_53_0001 experiment_2019_02_17_00_20_02_0001:

	DDPG pendulum w. curiosity and tanh activation


experiment_2019_02_15_23_57_07_0001 experiment_2019_02_15_23_57_23_0001 experiment_2019_02_15_23_57_47_0001 experiment_2019_02_15_23_58_10_0001 experiment_2019_02_15_23_58_26_0001 experiment_2019_02_15_23_58_40_0001 experiment_2019_02_15_23_58_54_0001 experiment_2019_02_15_23_59_08_0001 experiment_2019_02_15_23_59_22_0001 experiment_2019_02_15_23_59_36_0001:

	as above w/o curiosity



experiment_2019_02_18_02_38_20_0001 experiment_2019_02_18_02_38_44_0001 experiment_2019_02_18_02_39_10_0001 experiment_2019_02_18_02_39_28_0001 experiment_2019_02_18_02_39_48_0001 experiment_2019_02_18_02_40_04_0001 experiment_2019_02_18_02_40_21_0001 experiment_2019_02_18_02_40_54_0001 experiment_2019_02_18_02_41_09_0001 experiment_2019_02_18_02_41_23_0001

	REINFORCE cartpole swingup with curiosity


experiment_2019_02_18_04_48_14_0001 experiment_2019_02_18_04_48_28_0001 experiment_2019_02_18_04_48_38_0001 experiment_2019_02_18_04_48_48_0001 experiment_2019_02_18_04_48_58_0001 experiment_2019_02_18_04_49_08_0001 experiment_2019_02_18_04_49_18_0001 experiment_2019_02_18_04_49_28_0001 experiment_2019_02_18_04_49_38_0001 experiment_2019_02_18_04_49_49_0001

	as above w/o curiosity


trpo-expl_2019_05_29_07_56_07_0001 trpo-expl_2019_05_29_07_56_22_0001 trpo-expl_2019_05_29_07_56_32_0001 trpo-expl_2019_05_29_07_56_37_0001 trpo-expl_2019_05_29_07_56_43_0001 trpo-expl_2019_05_29_07_56_49_0001 trpo-expl_2019_05_29_07_56_55_0001 trpo-expl_2019_05_29_07_57_01_0001 trpo-expl_2019_05_29_07_57_08_0001 trpo-expl_2019_05_29_07_57_13_0001

	as above with VIME


experiment_2020_02_18_02_28_43_0001 experiment_2020_02_18_02_28_50_0001 experiment_2020_02_18_02_28_59_0001 experiment_2020_02_18_02_29_07_0001 experiment_2020_02_18_02_29_15_0001 experiment_2020_02_18_02_29_22_0001 experiment_2020_02_18_02_29_22_0001 experiment_2020_02_18_02_29_37_0001 experiment_2020_02_18_02_29_37_0001 experiment_2020_02_18_02_29_54_0001

	as above with RND


experiment_2019_02_18_07_36_38_0001 experiment_2019_02_18_07_36_53_0001 experiment_2019_02_18_07_37_06_0001 experiment_2019_02_18_07_37_17_0001 experiment_2019_02_18_07_37_27_0001 experiment_2019_02_18_07_37_38_0001 experiment_2019_02_18_07_37_48_0001 experiment_2019_02_18_07_37_59_0001 experiment_2019_02_18_07_38_08_0001 experiment_2019_02_18_07_38_17_0001

	REINFORCE mountaincar w. curiosity


experiment_2019_02_18_07_52_50_0001 experiment_2019_02_18_07_52_58_0001 experiment_2019_02_18_07_53_07_0001 experiment_2019_02_18_07_53_17_0001 experiment_2019_02_18_07_53_26_0001 experiment_2019_02_18_07_53_35_0001 experiment_2019_02_18_07_53_43_0001 experiment_2019_02_18_07_53_53_0001 experiment_2019_02_18_07_54_02_0001 experiment_2019_02_18_07_54_11_0001

	as above w/o curiosity


trpo-expl_2019_05_28_08_40_53_0001 trpo-expl_2019_05_28_09_03_48_0001 trpo-expl_2019_05_28_09_03_59_0001 trpo-expl_2019_05_28_09_04_08_0001 trpo-expl_2019_05_28_09_04_15_0001 trpo-expl_2019_05_28_09_04_24_0001 trpo-expl_2019_05_28_09_04_31_0001 trpo-expl_2019_05_28_09_04_39_0001 trpo-expl_2019_05_28_09_04_47_0001 trpo-expl_2019_05_28_09_04_58_0001

	as above with VIME


experiment_2020_02_14_05_02_00_0001 experiment_2020_02_14_05_05_05_0001 experiment_2020_02_14_05_07_43_0001 experiment_2020_02_14_05_10_35_0001 experiment_2020_02_14_05_13_25_0001 experiment_2020_02_14_05_16_52_0001 experiment_2020_02_14_05_19_26_0001 experiment_2020_02_14_05_22_09_0001 experiment_2020_02_14_05_25_32_0001 experiment_2020_02_14_05_28_16_0001

	as above with RNDs


experiment_2019_02_19_00_47_00_0001 experiment_2019_02_19_00_47_11_0001 experiment_2019_02_19_00_47_20_0001 experiment_2019_02_19_01_10_19_0001 experiment_2019_02_19_01_10_30_0001 experiment_2019_02_19_01_10_40_0001 experiment_2019_02_19_01_10_51_0001 experiment_2019_02_19_01_11_00_0001 experiment_2019_02_19_01_11_11_0001 experiment_2019_02_19_01_11_22_0001

	REINFORCE pendulum w. curiosity


experiment_2019_02_18_23_52_00_0001 experiment_2019_02_18_23_52_14_0001 experiment_2019_02_18_23_52_28_0001 experiment_2019_02_18_23_52_44_0001 experiment_2019_02_18_23_52_59_0001 experiment_2019_02_18_23_53_25_0001 experiment_2019_02_18_23_53_41_0001 experiment_2019_02_18_23_53_56_0001 experiment_2019_02_18_23_54_13_0001 experiment_2019_02_18_23_54_27_0001

	as above w/o curiosity


trpo-expl_2019_05_29_01_09_51_0001 trpo-expl_2019_05_29_01_10_00_0001 trpo-expl_2019_05_29_01_10_07_0001 trpo-expl_2019_05_29_01_10_16_0001 trpo-expl_2019_05_29_01_10_23_0001 trpo-expl_2019_05_29_01_10_36_0001 trpo-expl_2019_05_29_01_10_48_0001 trpo-expl_2019_05_29_01_10_54_0001 trpo-expl_2019_05_29_01_11_00_0001 trpo-expl_2019_05_29_01_11_07_0001 

	as above with VIME


experiment_2020_02_14_07_35_31_0001 experiment_2020_02_14_07_35_41_0001 experiment_2020_02_14_07_35_50_0001 experiment_2020_02_14_07_36_03_0001 experiment_2020_02_14_07_36_13_0001 experiment_2020_02_14_07_36_24_0001 experiment_2020_02_14_07_36_32_0001 experiment_2020_02_14_07_36_42_0001 experiment_2020_02_14_07_36_52_0001 experiment_2020_02_14_07_36_59_0001

	as above with RND


experiment_2019_02_19_06_10_03_0001 experiment_2019_02_19_06_10_16_0001 experiment_2019_02_19_06_10_36_0001 experiment_2019_02_19_06_10_50_0001 experiment_2019_02_19_06_11_04_0001 experiment_2019_02_19_06_11_17_0001 experiment_2019_02_19_06_11_32_0001 experiment_2019_02_19_06_11_48_0001 experiment_2019_02_19_06_12_02_0001 experiment_2019_02_19_06_12_18_0001

	REINFORCE acrobot w. curiosity


experiment_2019_02_19_07_16_48_0001 experiment_2019_02_19_07_17_02_0001 experiment_2019_02_19_07_17_13_0001 experiment_2019_02_19_07_17_24_0001 experiment_2019_02_19_07_17_36_0001 experiment_2019_02_19_07_17_46_0001 experiment_2019_02_19_07_17_56_0001 experiment_2019_02_19_07_18_05_0001 experiment_2019_02_19_07_18_16_0001 experiment_2019_02_19_07_18_27_0001

	as above w/o curiosity


trpo-expl_2019_05_29_01_14_41_0001 trpo-expl_2019_05_29_01_16_15_0001 trpo-expl_2019_05_29_01_16_24_0001 trpo-expl_2019_05_29_01_16_35_0001 trpo-expl_2019_05_29_01_16_48_0001 trpo-expl_2019_05_29_01_16_59_0001 trpo-expl_2019_05_29_01_17_15_0001 trpo-expl_2019_05_29_01_17_25_0001 trpo-expl_2019_05_29_01_17_38_0001 trpo-expl_2019_05_29_01_17_48_0001 

	as above with VIME


experiment_2020_02_17_05_19_51_0001 experiment_2020_02_17_05_20_07_0001 experiment_2020_02_17_05_20_22_0001 experiment_2020_02_17_05_20_31_0001 experiment_2020_02_17_05_20_38_0001 experiment_2020_02_17_05_20_46_0001 experiment_2020_02_17_05_21_10_0001 experiment_2020_02_17_05_21_19_0001 experiment_2020_02_17_05_21_27_0001 experiment_2020_02_17_05_21_36_0001

	as above with RND


experiment_2019_04_23_07_52_05_0001 experiment_2019_04_23_07_52_13_0001 experiment_2019_04_23_07_52_23_0001 experiment_2019_04_23_07_52_31_0001 experiment_2019_04_23_08_00_29_0001 experiment_2019_04_23_08_00_38_0001 experiment_2019_04_23_08_01_07_0001 experiment_2019_04_23_08_01_15_0001 experiment_2019_04_23_08_21_10_0001 experiment_2019_04_23_08_21_41_0001

	mountaincar TRPO with rrt pre-train


experiment_2019_04_23_06_17_45_0001 experiment_2019_04_23_06_17_58_0001 experiment_2019_04_23_06_18_09_0001 experiment_2019_04_23_06_18_21_0001 experiment_2019_04_23_08_22_37_0001 experiment_2019_04_23_08_22_59_0001 experiment_2019_04_23_08_23_18_0001 experiment_2019_04_23_08_23_42_0001 experiment_2019_04_23_08_24_10_0001 experiment_2019_04_23_08_26_43_0001

	mountaincar TRPO from scratch


experiment_2019_04_30_00_36_30_0001 experiment_2019_04_30_00_36_41_0001 experiment_2019_04_30_00_36_49_0001 experiment_2019_04_30_00_37_27_0001 experiment_2019_04_30_00_38_54_0001 experiment_2019_04_30_00_39_20_0001 experiment_2019_04_30_00_39_50_0001 experiment_2019_04_30_00_40_09_0001 experiment_2019_04_30_00_40_33_0001 experiment_2019_04_30_00_41_00_0001

	pendulum TRPO with rrt pre-train


experiment_2019_04_30_00_26_33_0001 experiment_2019_04_30_00_26_41_0001 experiment_2019_04_30_00_26_50_0001 experiment_2019_04_30_00_26_58_0001 experiment_2019_04_30_00_27_08_0001 experiment_2019_04_30_00_27_17_0001 experiment_2019_04_30_00_27_28_0001 experiment_2019_04_30_00_27_35_0001 experiment_2019_04_30_00_27_45_0001 experiment_2019_04_30_00_28_03_0001

	pendulum TRPO from scratch


experiment_2019_05_01_02_32_16_0001 experiment_2019_05_01_04_21_49_0001 experiment_2019_05_01_04_22_20_0001 experiment_2019_05_01_04_22_50_0001 experiment_2019_05_01_04_23_34_0001 experiment_2019_05_01_04_23_44_0001 experiment_2019_05_01_04_24_11_0001 experiment_2019_05_01_04_25_12_0001 experiment_2019_05_01_04_25_20_0001 experiment_2019_05_01_04_25_32_0001

	acrobot TRPO with rrt pre-train (64x64, relu)


experiment_2019_05_01_02_32_32_0001 experiment_2019_05_01_03_34_47_0001 experiment_2019_05_01_03_35_00_0001 experiment_2019_05_01_03_35_11_0001 experiment_2019_05_01_03_35_21_0001 experiment_2019_05_01_03_35_33_0001 experiment_2019_05_01_03_35_44_0001 experiment_2019_05_01_03_35_57_0001 experiment_2019_05_01_03_36_09_0001 experiment_2019_05_01_03_36_20_0001

	acrobot TRPO from scratch (64x64, relu)


experiment_2019_05_02_06_37_06_0001 experiment_2019_05_03_02_00_53_0001 experiment_2019_05_03_02_03_04_0001 experiment_2019_05_03_02_05_32_0001 experiment_2019_05_03_02_05_44_0001 experiment_2019_05_03_02_08_19_0001 experiment_2019_05_03_02_11_07_0001 experiment_2019_05_03_02_11_16_0001 experiment_2019_05_03_02_11_23_0001 experiment_2019_05_03_02_11_37_0001

	acrobot TRPO with rrt pre-train (32x32, tanh)


experiment_2019_05_02_06_35_17_0001 experiment_2019_05_02_07_24_41_0001 experiment_2019_05_02_07_24_51_0001 experiment_2019_05_02_07_24_59_0001  experiment_2019_05_02_07_25_13_0001 experiment_2019_05_02_07_25_23_0001 experiment_2019_05_02_07_25_31_0001 experiment_2019_05_02_07_25_41_0001 experiment_2019_05_02_07_25_50_0001 experiment_2019_05_02_07_25_58_0001

	acrobot TRPO from scratch (32x32, tanh)


experiment_2019_05_08_02_28_37_0001 experiment_2019_05_08_02_28_47_0001 experiment_2019_05_08_02_28_57_0001 experiment_2019_05_08_02_29_06_0001 experiment_2019_05_08_02_29_15_0001 experiment_2019_05_08_02_29_25_0001 experiment_2019_05_08_02_29_36_0001 experiment_2019_05_08_02_30_21_0001 experiment_2019_05_08_02_30_53_0001 experiment_2019_05_08_02_31_09_0001

	fixed mountaincar TRPO with rrt pre-train


trpo-expl_2019_05_10_08_18_36_0001 trpo-expl_2019_05_10_08_18_45_0001 trpo-expl_2019_05_10_08_18_57_0001 trpo-expl_2019_05_10_08_19_08_0001 trpo-expl_2019_05_10_08_19_18_0001 trpo-expl_2019_05_10_08_19_27_0001 trpo-expl_2019_05_10_08_19_36_0001 trpo-expl_2019_05_10_08_19_44_0001 trpo-expl_2019_05_10_08_19_53_0001 trpo-expl_2019_05_10_08_20_05_0001

	mountaincar VIME-TRPO from scratch


experiment_2019_05_08_01_56_34_0001 experiment_2019_05_08_01_56_51_0001 experiment_2019_05_08_01_57_05_0001 experiment_2019_05_08_01_57_14_0001 experiment_2019_05_08_01_57_24_0001 experiment_2019_05_08_01_57_34_0001 experiment_2019_05_08_01_57_43_0001 experiment_2019_05_08_01_57_52_0001 experiment_2019_05_08_01_58_02_0001 experiment_2019_05_08_01_59_03_0001

	fixed mountaincar TRPO from scratch


experiment_2019_05_08_03_51_53_0001 experiment_2019_05_08_03_52_03_0001 experiment_2019_05_08_03_52_11_0001 experiment_2019_05_08_03_52_22_0001 experiment_2019_05_08_03_52_39_0001 experiment_2019_05_08_03_52_48_0001 experiment_2019_05_08_03_52_58_0001 experiment_2019_05_08_03_53_07_0001 experiment_2019_05_08_03_53_15_0001 experiment_2019_05_08_03_53_23_0001

	fixed pendulum TRPO with rrt pre-train


trpo-expl_2019_05_14_01_30_35_0001 trpo-expl_2019_05_14_02_13_34_0001 trpo-expl_2019_05_14_02_13_45_0001 trpo-expl_2019_05_14_02_13_56_0001 trpo-expl_2019_05_14_02_14_12_0001 trpo-expl_2019_05_14_02_14_24_0001 trpo-expl_2019_05_14_02_14_36_0001 trpo-expl_2019_05_14_02_14_46_0001 trpo-expl_2019_05_14_02_14_56_0001 trpo-expl_2019_05_14_02_15_08_0001

	pendulum VIME-TRPO from scratch


experiment_2019_05_08_03_38_05_0001 experiment_2019_05_08_03_38_20_0001 experiment_2019_05_08_03_38_35_0001 experiment_2019_05_08_03_38_47_0001 experiment_2019_05_08_03_38_57_0001 experiment_2019_05_08_03_39_06_0001 experiment_2019_05_08_03_39_15_0001 experiment_2019_05_08_03_39_25_0001 experiment_2019_05_08_03_39_33_0001 experiment_2019_05_08_03_39_42_0001

	fixed pendulum TRPO from scratch


experiment_2019_05_08_05_50_16_0001 experiment_2019_05_08_05_50_24_0001 experiment_2019_05_08_05_50_33_0001 experiment_2019_05_08_05_50_40_0001 experiment_2019_05_08_05_50_48_0001 experiment_2019_05_08_05_50_56_0001 experiment_2019_05_08_05_51_06_0001 experiment_2019_05_08_05_51_15_0001 experiment_2019_05_08_05_51_23_0001 experiment_2019_05_08_05_51_32_0001

	fixed acrobot TRPO with rrt pre-train


trpo-expl_2019_05_14_07_28_46_0001 trpo-expl_2019_05_14_07_29_41_0001 trpo-expl_2019_05_14_07_29_53_0001 trpo-expl_2019_05_14_07_30_03_0001 trpo-expl_2019_05_14_07_30_13_0001 trpo-expl_2019_05_14_07_30_23_0001 trpo-expl_2019_05_14_07_30_37_0001 trpo-expl_2019_05_14_07_30_48_0001 trpo-expl_2019_05_14_07_31_11_0001

	acrobot VIME-TRPO from scratch


experiment_2019_05_08_05_27_56_0001 experiment_2019_05_08_05_41_10_0001 experiment_2019_05_08_05_41_24_0001 experiment_2019_05_08_05_41_35_0001 experiment_2019_05_08_05_41_44_0001 experiment_2019_05_08_05_41_52_0001 experiment_2019_05_08_05_42_01_0001 experiment_2019_05_08_05_42_10_0001 experiment_2019_05_08_05_42_18_0001 experiment_2019_05_08_05_42_26_0001

	fixed acrobot TRPO from scratch


experiment_2019_05_09_04_52_51_0001 experiment_2019_05_09_04_53_04_0001 experiment_2019_05_09_04_54_23_0001 experiment_2019_05_09_04_55_23_0001 experiment_2019_05_09_04_55_33_0001 experiment_2019_05_09_04_55_42_0001 experiment_2019_05_09_04_55_52_0001 experiment_2019_05_09_04_56_02_0001 experiment_2019_05_09_04_56_11_0001 experiment_2019_05_09_04_56_21_0001

	cartpole TRPO with rrt pre-train


trpo-expl_2019_05_14_08_12_48_0001 trpo-expl_2019_05_14_08_16_57_0001 trpo-expl_2019_05_14_08_17_14_0001 trpo-expl_2019_05_14_08_17_37_0001 trpo-expl_2019_05_14_08_17_53_0001 trpo-expl_2019_05_14_08_18_11_0001 trpo-expl_2019_05_14_08_18_24_0001 trpo-expl_2019_05_14_08_18_39_0001 trpo-expl_2019_05_14_08_18_58_0001 trpo-expl_2019_05_14_08_19_13_0001

	cartpole VIME-TRPO from scratch


experiment_2019_05_09_04_36_42_0001 experiment_2019_05_09_04_36_53_0001 experiment_2019_05_09_04_37_03_0001 experiment_2019_05_09_04_37_13_0001 experiment_2019_05_09_04_37_29_0001 experiment_2019_05_09_04_37_39_0001 experiment_2019_05_09_04_37_49_0001 experiment_2019_05_09_04_37_58_0001 experiment_2019_05_09_04_38_08_0001 experiment_2019_05_09_04_38_19_0001

	cartpole TRPO from scratch


experiment_2019_05_15_04_11_42_0001

	linear policy mountaincar with glorot initialization


experiment_2019_05_15_04_17_15_0001 experiment_2019_05_15_05_01_46_0001 experiment_2019_05_15_05_57_23_0001 experiment_2019_05_15_06_01_52_0001

	linear policy mountaincar initialized to theta = (1, 40)


experiment_2019_05_17_17_57_56_0001 experiment_2019_05_20_13_47_21_0001 experiment_2019_05_20_14_49_08_0001 experiment_2019_05_20_14_50_14_0001 experiment_2019_05_20_14_51_22_0001 experiment_2019_05_20_14_53_28_0001 experiment_2019_05_20_18_57_56_0001 experiment_2019_05_20_18_58_10_0001 experiment_2019_05_20_15_02_48_0001 experiment_2019_05_20_15_01_52_0001

	mujoco reacher TRPO with rrt pre-train (policy network 128,128,128,128; relu activation)


trpo-expl_2019_05_22_17_55_11_0001 trpo-expl_2019_05_22_17_57_44_0001 trpo-expl_2019_05_22_17_58_49_0001 trpo-expl_2019_05_22_17_59_52_0001 trpo-expl_2019_05_22_18_00_47_0001 trpo-expl_2019_05_22_18_03_37_0001 trpo-expl_2019_05_22_18_04_11_0001 

	mujoco reacher VIME-TRPO from scratch


experiment_2019_05_17_17_57_42_0001 experiment_2019_05_20_13_05_11_0001 experiment_2019_05_20_13_05_25_0001 experiment_2019_05_20_13_05_36_0001 experiment_2019_05_20_13_05_48_0001 experiment_2019_05_20_13_06_01_0001 experiment_2019_05_20_13_06_11_0001 experiment_2019_05_20_13_06_21_0001 experiment_2019_05_20_13_06_45_0001 experiment_2019_05_20_13_07_07_0001

	mujoco reacher TRPO from scratch (policy network 128,128,128,128; relu activation)


experiment_2019_06_14_02_04_31_0001 experiment_2019_06_14_02_04_55_0001 experiment_2019_06_14_02_25_13_0001 experiment_2019_06_14_02_25_49_0001 experiment_2019_06_14_02_26_05_0001

	low dimensional jaco grasping with visitation


experiment_2019_06_11_02_12_48_0001 experiment_2019_06_11_02_13_01_0001 experiment_2019_06_11_02_13_12_0001 experiment_2019_06_11_02_13_23_0001 experiment_2019_06_11_02_13_36_0001

	low-dimensional jaco grasping with RND


trpo-expl_2019_07_01_01_33_21_0001 trpo-expl_2019_07_01_01_36_26_0001 trpo-expl_2019_07_01_01_36_41_0001 trpo-expl_2019_07_01_01_36_57_0001 trpo-expl_2019_07_01_01_37_11_0001

	low-dimensional jaco grasping with VIME


experiment_2019_05_31_07_15_51_0001 experiment_2019_05_31_07_19_39_0001 experiment_2019_05_31_07_22_26_0001 experiment_2019_05_31_07_27_53_0001 experiment_2019_05_31_07_29_32_0001 (experiment_2019_06_03_04_27_29_0001 experiment_2019_06_03_04_27_38_0001 experiment_2019_06_03_04_27_50_0001 experiment_2019_06_03_04_28_02_0001 experiment_2019_06_03_04_28_12_0001)

	low-dimensional jaco grasping TRPO with pre-training


experiment_2019_06_05_05_56_08_0001 experiment_2019_06_05_03_46_01_0001 experiment_2019_06_05_05_56_48_0001 experiment_2019_06_05_05_56_59_0001 experiment_2019_06_05_05_57_15_0001

	low-dimensional jaco reaching with visitation 


experiment_2019_06_11_00_43_32_0001 experiment_2019_06_11_00_43_55_0001 experiment_2019_06_11_00_44_08_0001 experiment_2019_06_11_00_44_27_0001 experiment_2019_06_11_00_44_46_0001

	low-dimensional jaco reaching with RND


trpo-expl_2019_06_28_08_40_39_0001 trpo-expl_2019_06_28_09_02_08_0001 trpo-expl_2019_06_28_09_02_30_0001 trpo-expl_2019_06_28_09_02_47_0001 trpo-expl_2019_06_28_09_03_06_0001

	low-dimensional jaco reaching with VIME


experiment_2019_05_31_05_29_40_0001 experiment_2019_05_31_07_00_13_0001 experiment_2019_05_31_07_00_25_0001 experiment_2019_05_31_07_00_37_0001 experiment_2019_05_31_07_01_01_0001

	low-dimensional jaco reaching TRPO with pre-training


experiment_2019_06_28_11_20_21_0001 experiment_2019_07_01_11_15_48_0001 experiment_2019_07_03_11_01_29_0001 experiment_2019_09_05_11_08_20_0001 experiment_2019_09_08_13_10_42_0001

	physical robot low-d reaching with visitation (TRPO)


experiment_2019_06_27_15_10_27_0001 experiment_2019_06_30_11_24_53_0001 experiment_2019_07_02_13_15_36_0001 experiment_2019_09_04_11_04_39_0001 experiment_2019_09_06_10_44_57_0001

	physical robot low-d reaching with RND (TRPO)


experiment_2019_06_29_11_45_12_0001 

		physical robot low-d reaching with vanilla TRPO


experiment_2019_07_18_16_56_06_0001 experiment_2019_07_18_16_56_14_0001 experiment_2019_07_18_16_56_24_0001 experiment_2019_07_18_16_56_33_0001 experiment_2019_07_18_16_56_42_0001 experiment_2019_07_18_16_56_52_0001 experiment_2019_07_18_16_57_24_0001 experiment_2019_07_18_16_57_32_0001 experiment_2019_07_18_16_57_41_0001 experiment_2019_07_18_16_57_50_0001

	Fetch Reaching TRPO from scratch


experiment_2019_07_19_10_38_01_0001 experiment_2019_07_19_10_39_59_0001 experiment_2019_07_19_10_40_26_0001 experiment_2019_07_19_10_41_28_0001 experiment_2019_07_19_10_42_46_0001 experiment_2019_07_19_10_45_10_0001 experiment_2019_07_19_10_46_31_0001 experiment_2019_07_19_10_48_26_0001 experiment_2019_07_19_10_48_40_0001 experiment_2019_07_19_10_50_01_0001

	Fetch Reaching TRPO with rrt pre-train


experiment_2019_07_24_11_21_24_0001 experiment_2019_07_24_11_21_33_0001 experiment_2019_07_24_11_21_55_0001 experiment_2019_07_24_11_22_01_0001  experiment_2019_07_24_11_22_06_0001 experiment_2019_07_24_11_22_15_0001 experiment_2019_07_24_11_22_22_0001 experiment_2019_07_24_11_22_28_0001 experiment_2019_07_24_11_22_35_0001 experiment_2019_07_24_11_22_42_0001

	Hand Reaching TRPO from scratch


experiment_2019_07_25_13_04_16_0001 experiment_2019_07_25_13_04_26_0001 experiment_2019_07_25_13_08_49_0001 experiment_2019_07_25_13_09_03_0001 experiment_2019_07_25_13_15_12_0001 experiment_2019_07_25_13_17_15_0001 experiment_2019_07_25_13_19_18_0001 experiment_2019_07_25_13_21_17_0001 experiment_2019_07_25_13_23_23_0001 experiment_2019_07_25_13_25_24_0001

	Hand Reaching TRPO with rrt pre-train


experiment_2019_07_28_15_05_48_0001 experiment_2019_07_28_15_05_54_0001 experiment_2019_07_28_15_06_08_0001 experiment_2019_07_28_15_06_17_0001 experiment_2019_07_28_15_06_26_0001 experiment_2019_07_28_15_06_34_0001 experiment_2019_07_28_15_06_40_0001 experiment_2019_07_28_15_06_50_0001 experiment_2019_07_28_15_06_59_0001 experiment_2019_07_28_15_07_08_0001 

	Pendulum DDPG from scratch

experiment_2019_07_29_10_52_39_0001 experiment_2019_07_29_14_11_37_0001 experiment_2019_07_29_14_51_31_0001 experiment_2019_07_29_16_16_38_0001 experiment_2019_07_29_16_22_58_0001 experiment_2019_07_29_16_49_31_0001 experiment_2019_07_29_16_57_32_0001 experiment_2019_07_29_14_12_32_0001 experiment_2019_07_29_16_58_05_0001 experiment_2019_07_29_14_12_49_0001

	Pendulum DDPG with rrt pre-train


experiment_2019_07_30_10_55_21_0001 experiment_2019_07_30_11_47_56_0001 experiment_2019_07_30_11_48_08_0001 experiment_2019_07_30_11_48_20_0001 experiment_2019_07_30_11_48_34_0001 experiment_2019_07_30_11_48_48_0001 experiment_2019_07_30_11_49_02_0001 experiment_2019_07_30_11_49_13_0001 experiment_2019_07_30_11_49_31_0001 experiment_2019_07_30_11_56_21_0001

	Fetch Reaching DDPG from scratch


experiment_2019_07_30_10_26_49_0001 experiment_2019_07_30_13_46_52_0001 experiment_2019_07_30_13_50_59_0001 experiment_2019_07_30_13_55_36_0001 experiment_2019_07_30_14_00_34_0001 experiment_2019_07_30_14_06_39_0001 experiment_2019_07_30_14_12_11_0001 experiment_2019_07_30_14_18_27_0001 experiment_2019_07_30_14_25_15_0001 experiment_2019_07_30_14_32_46_0001

	Fetch Reaching DDPG with rrt pre-train


experiment_2019_07_30_18_37_55_0001 experiment_2019_07_30_18_51_58_0001 experiment_2019_07_30_18_52_49_0001 experiment_2019_07_30_18_53_05_0001 experiment_2019_07_30_18_53_15_0001 experiment_2019_07_30_18_53_23_0001 experiment_2019_07_30_18_53_40_0001 experiment_2019_07_30_18_53_56_0001 experiment_2019_07_30_18_54_10_0001 experiment_2019_07_30_18_54_19_0001

	Mountaincar DDPG from scratch


experiment_2019_07_30_19_09_12_0001 experiment_2019_07_30_19_45_14_0001 experiment_2019_07_30_19_45_26_0001 experiment_2019_07_30_19_45_37_0001  experiment_2019_07_30_19_45_52_0001 experiment_2019_07_30_19_46_04_0001 experiment_2019_07_30_19_46_19_0001 experiment_2019_07_30_19_46_33_0001 experiment_2019_07_30_19_47_30_0001 experiment_2019_07_30_19_47_04_0001

	Mountaincar DDPG with rrt pre-train


experiment_2019_07_31_12_06_57_0001 experiment_2019_07_31_12_09_42_0001 experiment_2019_07_31_14_16_56_0001 experiment_2019_07_31_14_17_10_0001 experiment_2019_07_31_14_17_26_0001

	Hand Reaching DDPG from scratch


experiment_2019_07_31_12_09_42_0001 experiment_2019_07_31_14_25_34_0001 experiment_2019_07_31_14_25_48_0001 experiment_2019_07_31_14_27_20_0001 experiment_2019_07_31_14_29_05_0001

	Hand Reaching DDPG with rrt pre-train


experiment_2019_08_02_19_34_51_0001 experiment_2019_08_05_11_42_30_0001 experiment_2019_08_05_11_42_38_0001 experiment_2019_08_05_11_43_06_0001 experiment_2019_08_05_11_43_16_0001 experiment_2019_08_05_11_43_27_0001 experiment_2019_08_05_11_43_53_0001 experiment_2019_08_05_11_44_03_0001 experiment_2019_08_05_11_44_12_0001 experiment_2019_08_05_11_44_25_0001 

	Mountaincar TRPO with tanh for mean


experiment_2019_08_05_14_07_43_0001 experiment_2019_08_05_14_07_49_0001 experiment_2019_08_05_14_07_55_0001 experiment_2019_08_05_14_08_29_0001 experiment_2019_08_05_14_08_36_0001 experiment_2019_08_05_14_08_42_0001 experiment_2019_08_05_14_08_49_0001 experiment_2019_08_05_14_08_55_0001 experiment_2019_08_05_14_09_01_0001 experiment_2019_08_05_14_09_13_0001

	Mountaincar TRPO with tanh mean and low power


experiment_2019_08_20_15_46_36_0001 experiment_2019_08_20_15_46_41_0001 experiment_2019_08_20_15_46_46_0001 experiment_2019_08_20_15_46_52_0001 experiment_2019_08_20_15_47_07_0001 experiment_2019_08_20_15_47_12_0001 experiment_2019_08_20_15_47_07_0001 experiment_2019_08_20_15_47_13_0001 experiment_2019_08_20_15_47_21_0001 experiment_2019_08_20_15_47_26_0001

	Cartpole balance w. epsilon = 0


experiment_2019_08_20_13_25_54_0001 experiment_2019_08_20_13_26_01_0001 experiment_2019_08_20_13_26_09_0001 experiment_2019_08_20_13_26_24_0001 experiment_2019_08_20_13_26_31_0001 experiment_2019_08_20_13_26_37_0001 experiment_2019_08_20_13_26_44_0001 experiment_2019_08_20_13_26_50_0001 experiment_2019_08_20_13_26_57_0001 experiment_2019_08_20_13_27_21_0001

	Cartpole balance w. epsilon = 0.01


experiment_2019_08_20_17_05_30_0001 experiment_2019_08_20_17_05_48_0001 experiment_2019_08_20_17_06_04_0001 experiment_2019_08_20_17_06_17_0001 experiment_2019_08_20_17_06_26_0001 experiment_2019_08_20_17_06_40_0001 experiment_2019_08_20_17_06_53_0001 experiment_2019_08_20_17_14_14_0001 experiment_2019_08_20_17_14_24_0001 experiment_2019_08_20_17_14_34_0001

	Cartpole balance w. epsilon = 0.05


experiment_2019_08_20_13_52_52_0001 experiment_2019_08_20_13_52_58_0001 experiment_2019_08_20_13_53_04_0001 experiment_2019_08_20_13_53_09_0001 experiment_2019_08_20_13_53_16_0001 experiment_2019_08_20_13_53_22_0001 experiment_2019_08_20_13_53_37_0001 experiment_2019_08_20_13_53_33_0001 experiment_2019_08_20_13_53_38_0001 experiment_2019_08_20_13_53_43_0001

	Cartpole balance w. epsilon = 0.1


experiment_2019_08_20_14_21_38_0001 experiment_2019_08_20_14_21_45_0001 experiment_2019_08_20_14_21_50_0001 experiment_2019_08_20_14_23_16_0001 experiment_2019_08_20_14_23_25_0001 experiment_2019_08_20_14_23_33_0001 experiment_2019_08_20_14_23_40_0001 experiment_2019_08_20_14_23_51_0001 experiment_2019_08_20_14_23_58_0001 experiment_2019_08_20_14_24_14_0001

	Cartpole balance w. epsilon = 0.25


experiment_2019_08_20_13_03_37_0001 experiment_2019_08_20_13_05_17_0001 experiment_2019_08_20_13_05_27_0001 experiment_2019_08_20_13_05_38_0001 experiment_2019_08_20_13_05_54_0001 experiment_2019_08_20_13_06_09_0001 experiment_2019_08_20_13_06_19_0001 experiment_2019_08_20_13_06_41_0001 experiment_2019_08_20_13_06_40_0001 experiment_2019_08_20_13_07_03_0001

	Cartpole balance w. epsilon = 0.5


experiment_2019_08_20_14_04_45_0001 experiment_2019_08_20_14_04_50_0001 experiment_2019_08_20_14_04_56_0001 experiment_2019_08_20_14_05_01_0001 experiment_2019_08_20_14_05_10_0001 experiment_2019_08_20_14_06_58_0001 experiment_2019_08_20_14_12_47_0001 experiment_2019_08_20_14_05_54_0001 experiment_2019_08_20_14_06_00_0001 experiment_2019_08_20_14_06_07_0001

	Cartpole balance w. epsilon = 1.0


experiment_2019_08_20_14_43_35_0001 experiment_2019_08_20_14_43_39_0001 experiment_2019_08_20_14_43_45_0001 experiment_2019_08_20_14_43_49_0001 experiment_2019_08_20_14_43_55_0001 experiment_2019_08_20_14_44_00_0001 experiment_2019_08_20_14_44_05_0001 experiment_2019_08_20_14_44_20_0001 experiment_2019_08_20_14_44_15_0001 experiment_2019_08_20_14_44_30_0001

	Cartpole balance w. epsilon = 5.0


experiment_2019_08_20_14_54_41_0001 experiment_2019_08_20_14_54_47_0001 experiment_2019_08_20_14_54_52_0001 experiment_2019_08_20_14_54_57_0001 experiment_2019_08_20_14_55_02_0001 experiment_2019_08_20_14_55_28_0001 experiment_2019_08_20_14_55_15_0001 experiment_2019_08_20_14_55_20_0001 experiment_2019_08_20_14_55_26_0001 experiment_2019_08_20_14_55_42_0001

	Cartpole balance w. epsilon = 10.0


experiment_2019_08_21_14_40_27_0001 experiment_2019_08_21_14_58_24_0001 experiment_2019_08_21_14_58_37_0001 experiment_2019_08_21_14_58_44_0001 experiment_2019_08_21_14_58_51_0001 experiment_2019_08_21_14_58_57_0001 experiment_2019_08_21_14_59_03_0001 experiment_2019_08_21_14_59_10_0001 experiment_2019_08_21_14_59_16_0001 experiment_2019_08_21_16_51_08_0001

	Acrobot DDPG with rrt pre-train


experiment_2019_08_21_14_51_30_0001 experiment_2019_08_21_16_52_29_0001 experiment_2019_08_21_16_52_38_0001 experiment_2019_08_21_16_52_46_0001 experiment_2019_08_21_16_52_53_0001 experiment_2019_08_21_16_53_23_0001 experiment_2019_08_21_16_53_31_0001 experiment_2019_08_21_16_53_40_0001 experiment_2019_08_21_16_53_49_0001 experiment_2019_08_21_16_53_57_0001

	Acrobot DDPG from scratch


experiment_2019_08_22_14_04_15_0001 experiment_2019_08_22_15_35_13_0001 experiment_2019_08_22_15_35_29_0001 experiment_2019_08_22_15_37_29_0001 experiment_2019_08_22_15_37_40_0001 experiment_2019_08_22_15_37_48_0001 experiment_2019_08_22_15_37_57_0001 experiment_2019_08_22_15_38_06_0001 experiment_2019_08_22_15_38_15_0001 experiment_2019_08_22_15_38_24_0001

	Swingup DDPG with rrt pre-train


experiment_2019_08_22_13_29_28_0001 experiment_2019_08_22_15_40_10_0001 experiment_2019_08_22_15_40_18_0001 experiment_2019_08_22_15_40_26_0001 experiment_2019_08_22_15_40_34_0001 experiment_2019_08_22_15_40_43_0001 experiment_2019_08_22_15_40_51_0001 experiment_2019_08_22_15_41_12_0001 experiment_2019_08_22_15_41_20_0001 experiment_2019_08_22_15_41_28_0001

	Swingup DDPG from scratch


experiment_2019_08_23_14_11_58_0001 experiment_2019_08_23_14_11_59_0001 experiment_2019_08_23_14_12_07_0001 experiment_2019_08_23_14_12_33_0001 experiment_2019_08_23_14_12_47_0001 experiment_2019_08_23_14_12_55_0001 experiment_2019_08_23_14_13_02_0001 experiment_2019_08_23_14_13_11_0001 experiment_2019_08_23_14_13_19_0001 experiment_2019_08_23_14_13_29_0001

	Swingup DDPG with pre-train without reward at x bounds


experiment_2019_08_27_17_26_55_0001 experiment_2019_08_27_17_52_09_0001 experiment_2019_08_27_17_52_24_0001 experiment_2019_08_27_17_52_37_0001 experiment_2019_08_27_17_52_52_0001 experiment_2019_08_27_18_12_34_0001 experiment_2019_08_27_18_12_49_0001 experiment_2019_08_27_18_13_05_0001 experiment_2019_08_27_18_13_19_0001 experiment_2019_08_27_18_13_54_0001

	Reacher DDPG with rrt pre-train


experiment_2019_08_29_10_34_35_0001 experiment_2019_08_29_10_34_51_0001 experiment_2019_08_29_10_35_04_0001 experiment_2019_08_29_10_35_14_0001 experiment_2019_08_29_10_35_22_0001 experiment_2019_08_29_10_35_38_0001 experiment_2019_08_29_10_35_47_0001 experiment_2019_08_29_10_35_56_0001 experiment_2019_08_29_10_36_05_0001 experiment_2019_08_29_10_36_13_0001

	Reacher DDPG from scratch


experiment_2020_01_07_14_33_14_0001 experiment_2020_01_07_14_34_24_0001 experiment_2020_01_07_14_34_33_0001 experiment_2020_01_07_14_34_45_0001 experiment_2020_01_07_14_34_54_0001 experiment_2020_01_07_14_35_06_0001 experiment_2020_01_07_14_35_15_0001 experiment_2020_01_07_14_35_23_0001 experiment_2020_01_07_14_35_31_0001 experiment_2020_01_07_14_35_40_0001

	Mountaincar TRPO with solver pre-train


experiment_2020_01_08_13_34_50_0001 experiment_2020_01_08_13_50_07_0001 experiment_2020_01_08_13_50_14_0001 experiment_2020_01_08_13_50_22_0001 experiment_2020_01_08_13_50_29_0001 experiment_2020_01_08_13_50_36_0001 experiment_2020_01_08_13_50_44_0001 experiment_2020_01_08_13_50_51_0001 experiment_2020_01_08_13_51_06_0001 experiment_2020_01_08_13_51_22_0001

	Acrobot TRPO with solver pre-train


experiment_2020_01_08_16_20_46_0001 experiment_2020_01_08_16_28_47_0001 experiment_2020_01_08_16_23_42_0001 experiment_2020_01_08_16_24_08_0001 experiment_2020_01_08_16_24_45_0001 experiment_2020_01_08_16_25_10_0001 experiment_2020_01_08_16_26_04_0001 experiment_2020_01_08_16_26_38_0001 experiment_2020_01_08_16_27_01_0001 experiment_2020_01_08_16_28_01_0001 

	Pendulum TRPO with solver pre-train




experiment_2020_02_17_01_54_43_0001 experiment_2020_02_17_01_54_54_0001 experiment_2020_02_17_01_55_05_0001 experiment_2020_02_17_01_55_13_0001 experiment_2020_02_17_01_55_20_0001 experiment_2020_02_17_01_55_27_0001 experiment_2020_02_17_01_55_41_0001 experiment_2020_02_17_01_55_50_0001 experiment_2020_02_17_01_53_24_0001
